…
``` r
(bridge.subset <- bridge[,c(2,9,10,22,27,121)])
```

    ## # A tibble: 13,471 x 6
    ##    STRUCTURE_NUMBE~ COUNTY_CODE_003 PLACE_CODE_004 DETOUR_KILOS_019
    ##    <chr>            <chr>           <chr>                     <dbl>
    ##  1 000000000006389  023             00000                        18
    ##  2 000000000006390  023             65704                        29
    ##  3 000000000006391  073             00000                        11
    ##  4 000000000007435  021             00000                        16
    ##  5 00000000000F115  029             53458                        44
    ##  6 00000000000F116  029             00000                        37
    ##  7 00000000000F124  007             53458                        32
    ##  8 00000000000F125  007             53458                        40
    ##  9 00000000000F126  007             00000                         8
    ## 10 00000000000F127  029             53458                        40
    ## # ... with 13,461 more rows, and 2 more variables: YEAR_BUILT_027 <dbl>,
    ## #   BRIDGE_CONDITION <chr>
